{
    "env": {
        "compiler": "bit.envs/compilers/react@0.0.13",
        "tester": "none"
    },
    "dependencies": {},
    "componentsDefaultDirectory": "src/components/{namespace}/{name}",
    "packageManager": "npm"
}